{
  "port": 8091,
  "gpio": {
    "success": {
      "pin": 16,
      "mode": "w",
      "defaultValue": 0
    },
    "error": {
      "pin": 18,
      "mode": "w",
      "defaultValue": 0
    },
    "door": {
      "pin": 17,
      "mode": "w",
      "defaultValue": 0
    }
  },
  "tokens": [
    {
      "token": "7574DI3HzLX2EekxgZ2my3fLb77690z4",
      "roles": [
        "write",
        "read"
      ]
    },
    {
      "token": "*",
      "roles": [
        "read"
      ]
    }
  ]
}